<?xml version="1.0" encoding="UTF-8" standalone="no"?>
<!-- Creator: CorelDRAW X6 -->

<svg
   xmlns:dc="http://purl.org/dc/elements/1.1/"
   xmlns:cc="http://creativecommons.org/ns#"
   xmlns:rdf="http://www.w3.org/1999/02/22-rdf-syntax-ns#"
   xmlns:svg="http://www.w3.org/2000/svg"
   xmlns="http://www.w3.org/2000/svg"
   xmlns:sodipodi="http://sodipodi.sourceforge.net/DTD/sodipodi-0.dtd"
   xmlns:inkscape="http://www.inkscape.org/namespaces/inkscape"
   xml:space="preserve"
   width="2.1653543in"
   height="1.1023622in"
   version="1.1"
   viewBox="0 0 2113.4377 1076.1535"
   id="svg64"
   sodipodi:docname="svg.pcb.ESP32-38PinWide_pcb.svg"
   inkscape:version="0.92.4 (5da689c313, 2019-01-14)"
   style="clip-rule:evenodd;fill-rule:evenodd;image-rendering:optimizeQuality;shape-rendering:geometricPrecision;text-rendering:geometricPrecision"><metadata
   id="metadata70"><rdf:RDF><cc:Work
       rdf:about=""><dc:format>image/svg+xml</dc:format><dc:type
         rdf:resource="http://purl.org/dc/dcmitype/StillImage" /><dc:title /></cc:Work></rdf:RDF></metadata><defs
   id="defs68" /><sodipodi:namedview
   pagecolor="#ffffff"
   bordercolor="#666666"
   borderopacity="1"
   objecttolerance="10"
   gridtolerance="10"
   guidetolerance="10"
   inkscape:pageopacity="0"
   inkscape:pageshadow="2"
   inkscape:window-width="1605"
   inkscape:window-height="897"
   id="namedview66"
   showgrid="false"
   inkscape:zoom="6.202802"
   inkscape:cx="58.110313"
   inkscape:cy="58.241132"
   inkscape:window-x="144"
   inkscape:window-y="81"
   inkscape:window-maximized="0"
   inkscape:current-layer="silkscreen"
   fit-margin-top="0"
   fit-margin-left="0"
   fit-margin-right="0"
   fit-margin-bottom="0" />
 <g
   id="PCB"
   transform="translate(-0.80334013,93.765157)">
  <metadata
   id="CorelCorpID_0Corel-Layer" />
  <g
   id="silkscreen">
   <path
   id="boardoutline"
   d="m 2110.7037,607.06632 v 326.60546 c 0,23.01581 -20.4496,44.93564 -44.3075,44.93564 H 47.564001 c -23.857894,0 -43.1714261,-18.63185 -43.1714261,-41.64767 V -48.336571 c 0,-23.015821 19.3135321,-41.647676 43.1714261,-41.647676 H 2066.3962 c 23.8579,0 43.1714,18.631855 43.1714,41.647676 l 1.1361,329.893431"
   inkscape:connector-curvature="0"
   style="fill:none;stroke:#000000;stroke-width:7.56181955" />
   <line
   x1="286.16348"
   y1="125.86197"
   x2="286.16348"
   y2="783.90881"
   id="line4"
   style="fill:none;stroke:#000000;stroke-width:5.5644207" />
   <g
   transform="rotate(-90,675.6775,1008.2525)"
   id="g8">
    <text
   x="1057.2836"
   y="503.68753"
   font-weight="normal"
   font-size="108.419"
   id="text6"
   style="font-style:normal;font-variant:normal;font-weight:normal;font-stretch:normal;font-size:108.41927338px;font-family:'Droid Sans';-inkscape-font-specification:'Droid Sans, Normal';font-variant-ligatures:normal;font-variant-caps:normal;font-variant-numeric:normal;font-feature-settings:normal;text-align:start;writing-mode:lr-tb;text-anchor:start;fill:#000000"><tspan
     sodipodi:role="line"
     id="tspan774"
     x="1057.2836"
     y="503.68753">Antena</tspan></text>



   </g>
   <text
   x="750"
   y="344"
   font-weight="normal"
   font-size="108.419"
   id="text10"
   style="font-weight:normal;font-size:108.41899872px;font-family:Arial;fill:#000000">ESP</text>



   <text
   x="976"
   y="344"
   font-weight="normal"
   font-size="108.419"
   id="text12"
   style="font-weight:normal;font-size:108.41899872px;font-family:Arial;fill:#000000">-32S</text>



   <text
   x="681.79816"
   y="515.16345"
   font-weight="normal"
   font-size="108.419"
   id="text14"
   style="font-style:normal;font-variant:normal;font-weight:normal;font-stretch:normal;font-size:108.41927338px;font-family:Arial;-inkscape-font-specification:'Arial, Normal';font-variant-ligatures:normal;font-variant-caps:normal;font-variant-numeric:normal;font-feature-settings:normal;text-align:start;writing-mode:lr-tb;text-anchor:start;fill:#000000"><tspan
     sodipodi:role="line"
     id="tspan846"
     x="681.79816"
     y="515.16345">38-Pin Wide</tspan></text>



   <text
   x="680"
   y="714"
   font-weight="normal"
   font-size="108.419"
   id="text16"
   style="font-weight:normal;font-size:108.41899872px;font-family:Arial;fill:#000000">WiFi Module</text>



   <g
   transform="rotate(-90,757.65465,1070.4336)"
   id="g20">
    <text
   x="892.9519"
   y="542.34851"
   font-weight="normal"
   font-size="67.7629"
   id="text18"
   style="font-style:normal;font-variant:normal;font-weight:normal;font-stretch:normal;font-size:54.23472214px;font-family:Arial;-inkscape-font-specification:'Arial, Normal';font-variant-ligatures:normal;font-variant-caps:normal;font-variant-numeric:normal;font-feature-settings:normal;text-align:start;writing-mode:lr-tb;text-anchor:start;fill:#000000;stroke-width:0.49676946"
   transform="scale(1.0551952,0.94769195)"><tspan
     sodipodi:role="line"
     id="tspan776"
     x="892.9519"
     y="542.34851"
     style="font-style:normal;font-variant:normal;font-weight:normal;font-stretch:normal;font-size:54.23472214px;font-family:Arial;-inkscape-font-specification:'Arial, Normal';font-variant-ligatures:normal;font-variant-caps:normal;font-variant-numeric:normal;font-feature-settings:normal;text-align:start;writing-mode:lr-tb;text-anchor:start;stroke-width:0.49676946">3v3</tspan></text>



   <text
   transform="scale(1.0551952,0.94769195)"
   style="font-style:normal;font-variant:normal;font-weight:normal;font-stretch:normal;font-size:54.23472214px;font-family:Arial;-inkscape-font-specification:'Arial, Normal';font-variant-ligatures:normal;font-variant-caps:normal;font-variant-numeric:normal;font-feature-settings:normal;text-align:start;writing-mode:lr-tb;text-anchor:start;fill:#000000;stroke-width:0.49676946"
   id="text780"
   font-size="67.7629"
   font-weight="normal"
   y="646.14313"
   x="894.50555"><tspan
     sodipodi:role="line"
     id="tspan782"
     x="894.50555"
     y="646.14313">EN</tspan></text>


<text
   x="899.16656"
   y="2393.3523"
   font-weight="normal"
   font-size="67.7629"
   id="text786"
   style="font-style:normal;font-variant:normal;font-weight:normal;font-stretch:normal;font-size:54.23472214px;font-family:Arial;-inkscape-font-specification:'Arial, Normal';font-variant-ligatures:normal;font-variant-caps:normal;font-variant-numeric:normal;font-feature-settings:normal;text-align:start;writing-mode:lr-tb;text-anchor:start;fill:#000000;stroke-width:0.49676946"
   transform="scale(1.0551952,0.94769195)"><tspan
     sodipodi:role="line"
     id="tspan788"
     x="899.16656"
     y="2393.3523">Vin</tspan></text>


<text
   transform="scale(1.0551952,0.94769195)"
   style="font-style:normal;font-variant:normal;font-weight:normal;font-stretch:normal;font-size:54.23472214px;font-family:Arial;-inkscape-font-specification:'Arial, Normal';font-variant-ligatures:normal;font-variant-caps:normal;font-variant-numeric:normal;font-feature-settings:normal;text-align:start;writing-mode:lr-tb;text-anchor:start;fill:#000000;stroke-width:0.49676946"
   id="text792"
   font-size="67.7629"
   font-weight="normal"
   y="1889.9485"
   x="896.05927"><tspan
     sodipodi:role="line"
     id="tspan794"
     x="896.05927"
     y="1889.9485">GND</tspan></text>


<text
   x="1609.1925"
   y="549.26801"
   font-weight="normal"
   font-size="67.7629"
   id="text798"
   style="font-style:normal;font-variant:normal;font-weight:normal;font-stretch:normal;font-size:54.23472214px;font-family:Arial;-inkscape-font-specification:'Arial, Normal';font-variant-ligatures:normal;font-variant-caps:normal;font-variant-numeric:normal;font-feature-settings:normal;text-align:start;writing-mode:lr-tb;text-anchor:start;fill:#000000;stroke-width:0.49676946"
   transform="scale(1.0551952,0.94769195)"><tspan
     y="549.26801"
     x="1609.1925"
     id="tspan796"
     sodipodi:role="line">GND</tspan></text>


<text
   transform="scale(1.0551952,0.94769195)"
   style="font-style:normal;font-variant:normal;font-weight:normal;font-stretch:normal;font-size:54.23472214px;font-family:Arial;-inkscape-font-specification:'Arial, Normal';font-variant-ligatures:normal;font-variant-caps:normal;font-variant-numeric:normal;font-feature-settings:normal;text-align:start;writing-mode:lr-tb;text-anchor:start;fill:#000000;stroke-width:0.49676946"
   id="text802"
   font-size="67.7629"
   font-weight="normal"
   y="1170.3058"
   x="1606.0852"><tspan
     sodipodi:role="line"
     id="tspan800"
     x="1606.0852"
     y="1170.3058">GND</tspan></text>


<text
   x="902.27386"
   y="959.2569"
   font-weight="normal"
   font-size="67.7629"
   id="text806"
   style="font-style:normal;font-variant:normal;font-weight:normal;font-stretch:normal;font-size:54.23472214px;font-family:Arial;-inkscape-font-specification:'Arial, Normal';font-variant-ligatures:normal;font-variant-caps:normal;font-variant-numeric:normal;font-feature-settings:normal;text-align:start;writing-mode:lr-tb;text-anchor:start;fill:#000000;stroke-width:0.49676946"
   transform="scale(1.0551952,0.94769195)"><tspan
     sodipodi:role="line"
     id="tspan190"
     x="902.27386"
     y="959.2569">G34</tspan></text>


<text
   transform="scale(1.0551952,0.94769195)"
   style="font-style:normal;font-variant:normal;font-weight:normal;font-stretch:normal;font-size:54.23472214px;font-family:Arial;-inkscape-font-specification:'Arial, Normal';font-variant-ligatures:normal;font-variant-caps:normal;font-variant-numeric:normal;font-feature-settings:normal;text-align:start;writing-mode:lr-tb;text-anchor:start;fill:#000000;stroke-width:0.49676946"
   id="text812"
   font-size="67.7629"
   font-weight="normal"
   y="1469.5804"
   x="905.38123"><tspan
     sodipodi:role="line"
     id="tspan212"
     x="905.38123"
     y="1469.5804">G26</tspan></text>


<text
   x="899.1665"
   y="1990.2834"
   font-weight="normal"
   font-size="67.7629"
   id="text818"
   style="font-style:normal;font-variant:normal;font-weight:normal;font-stretch:normal;font-size:54.23472214px;font-family:Arial;-inkscape-font-specification:'Arial, Normal';font-variant-ligatures:normal;font-variant-caps:normal;font-variant-numeric:normal;font-feature-settings:normal;text-align:start;writing-mode:lr-tb;text-anchor:start;fill:#000000;stroke-width:0.49676946"
   transform="scale(1.0551952,0.94769195)"><tspan
     sodipodi:role="line"
     id="tspan232"
     x="899.1665"
     y="1990.2834">G13</tspan></text>


<text
   transform="scale(1.0551952,0.94769195)"
   style="font-style:normal;font-variant:normal;font-weight:normal;font-stretch:normal;font-size:54.23472214px;font-family:Arial;-inkscape-font-specification:'Arial, Normal';font-variant-ligatures:normal;font-variant-caps:normal;font-variant-numeric:normal;font-feature-settings:normal;text-align:start;writing-mode:lr-tb;text-anchor:start;fill:#000000;stroke-width:0.49676946"
   id="text824"
   font-size="67.7629"
   font-weight="normal"
   y="2405.4619"
   x="1609.1924"><tspan
     sodipodi:role="line"
     id="tspan172"
     x="1609.1924"
     y="2405.4619">CLK</tspan></text>


<text
   x="1626.2827"
   y="1889.9486"
   font-weight="normal"
   font-size="67.7629"
   id="text830"
   style="font-style:normal;font-variant:normal;font-weight:normal;font-stretch:normal;font-size:54.23472214px;font-family:Arial;-inkscape-font-specification:'Arial, Normal';font-variant-ligatures:normal;font-variant-caps:normal;font-variant-numeric:normal;font-feature-settings:normal;text-align:start;writing-mode:lr-tb;text-anchor:start;fill:#000000;stroke-width:0.49676946"
   transform="scale(1.0551952,0.94769195)"><tspan
     sodipodi:role="line"
     id="tspan146"
     x="1626.2827"
     y="1889.9486">G0</tspan></text>


<text
   transform="scale(1.0551952,0.94769195)"
   style="font-style:normal;font-variant:normal;font-weight:normal;font-stretch:normal;font-size:54.23472214px;font-family:Arial;-inkscape-font-specification:'Arial, Normal';font-variant-ligatures:normal;font-variant-caps:normal;font-variant-numeric:normal;font-feature-settings:normal;text-align:start;writing-mode:lr-tb;text-anchor:start;fill:#000000;stroke-width:0.49676946"
   id="text836"
   font-size="67.7629"
   font-weight="normal"
   y="1377.8951"
   x="1616.9607"><tspan
     sodipodi:role="line"
     id="tspan120"
     x="1616.9607"
     y="1377.8951">G18</tspan></text>


<text
   x="1615.4071"
   y="860.65198"
   font-weight="normal"
   font-size="67.7629"
   id="text842"
   style="font-style:normal;font-variant:normal;font-weight:normal;font-stretch:normal;font-size:54.23472214px;font-family:Arial;-inkscape-font-specification:'Arial, Normal';font-variant-ligatures:normal;font-variant-caps:normal;font-variant-numeric:normal;font-feature-settings:normal;text-align:start;writing-mode:lr-tb;text-anchor:start;fill:#000000;stroke-width:0.49676946"
   transform="scale(1.0551952,0.94769195)"><tspan
     sodipodi:role="line"
     id="tspan100"
     x="1615.4071"
     y="860.65198">TXD</tspan></text>


<text
   transform="scale(1.0551952,0.94769195)"
   style="font-style:normal;font-variant:normal;font-weight:normal;font-stretch:normal;font-size:54.23472214px;font-family:Arial;-inkscape-font-specification:'Arial, Normal';font-variant-ligatures:normal;font-variant-caps:normal;font-variant-numeric:normal;font-feature-settings:normal;text-align:start;writing-mode:lr-tb;text-anchor:start;fill:#000000;stroke-width:0.49676946"
   id="text90"
   font-size="67.7629"
   font-weight="normal"
   y="653.06262"
   x="1618.5145"><tspan
     sodipodi:role="line"
     id="tspan92"
     x="1618.5145"
     y="653.06262">G23</tspan></text>

<text
   x="1621.6218"
   y="753.3974"
   font-weight="normal"
   font-size="67.7629"
   id="text96"
   style="font-style:normal;font-variant:normal;font-weight:normal;font-stretch:normal;font-size:54.23472214px;font-family:Arial;-inkscape-font-specification:'Arial, Normal';font-variant-ligatures:normal;font-variant-caps:normal;font-variant-numeric:normal;font-feature-settings:normal;text-align:start;writing-mode:lr-tb;text-anchor:start;fill:#000000;stroke-width:0.49676946"
   transform="scale(1.0551952,0.94769195)"><tspan
     sodipodi:role="line"
     id="tspan98"
     x="1621.6218"
     y="753.3974">G22</tspan></text>

<text
   transform="scale(1.0551952,0.94769195)"
   style="font-style:normal;font-variant:normal;font-weight:normal;font-stretch:normal;font-size:54.23472214px;font-family:Arial;-inkscape-font-specification:'Arial, Normal';font-variant-ligatures:normal;font-variant-caps:normal;font-variant-numeric:normal;font-feature-settings:normal;text-align:start;writing-mode:lr-tb;text-anchor:start;fill:#000000;stroke-width:0.49676946"
   id="text104"
   font-size="67.7629"
   font-weight="normal"
   y="964.44659"
   x="1612.2998"><tspan
     sodipodi:role="line"
     id="tspan106"
     x="1612.2998"
     y="964.44659">RXD</tspan></text>

<text
   transform="scale(1.0551952,0.94769195)"
   style="font-style:normal;font-variant:normal;font-weight:normal;font-stretch:normal;font-size:54.23472214px;font-family:Arial;-inkscape-font-specification:'Arial, Normal';font-variant-ligatures:normal;font-variant-caps:normal;font-variant-numeric:normal;font-feature-settings:normal;text-align:start;writing-mode:lr-tb;text-anchor:start;fill:#000000;stroke-width:0.49676946"
   id="text110"
   font-size="67.7629"
   font-weight="normal"
   y="1068.2411"
   x="1621.6218"><tspan
     sodipodi:role="line"
     id="tspan112"
     x="1621.6218"
     y="1068.2411">G21</tspan></text>

<text
   x="1618.5145"
   y="1272.3705"
   font-weight="normal"
   font-size="67.7629"
   id="text116"
   style="font-style:normal;font-variant:normal;font-weight:normal;font-stretch:normal;font-size:54.23472214px;font-family:Arial;-inkscape-font-specification:'Arial, Normal';font-variant-ligatures:normal;font-variant-caps:normal;font-variant-numeric:normal;font-feature-settings:normal;text-align:start;writing-mode:lr-tb;text-anchor:start;fill:#000000;stroke-width:0.49676946"
   transform="scale(1.0551952,0.94769195)"><tspan
     sodipodi:role="line"
     id="tspan118"
     x="1618.5145"
     y="1272.3705">G19</tspan></text>

<text
   x="1632.4973"
   y="1478.23"
   font-weight="normal"
   font-size="67.7629"
   id="text124"
   style="font-style:normal;font-variant:normal;font-weight:normal;font-stretch:normal;font-size:54.23472214px;font-family:Arial;-inkscape-font-specification:'Arial, Normal';font-variant-ligatures:normal;font-variant-caps:normal;font-variant-numeric:normal;font-feature-settings:normal;text-align:start;writing-mode:lr-tb;text-anchor:start;fill:#000000;stroke-width:0.49676946"
   transform="scale(1.0551952,0.94769195)"><tspan
     sodipodi:role="line"
     id="tspan126"
     x="1632.4973"
     y="1478.23">G5</tspan></text>

<text
   x="1613.8534"
   y="1582.0245"
   font-weight="normal"
   font-size="67.7629"
   id="text130"
   style="font-style:normal;font-variant:normal;font-weight:normal;font-stretch:normal;font-size:54.23472214px;font-family:Arial;-inkscape-font-specification:'Arial, Normal';font-variant-ligatures:normal;font-variant-caps:normal;font-variant-numeric:normal;font-feature-settings:normal;text-align:start;writing-mode:lr-tb;text-anchor:start;fill:#000000;stroke-width:0.49676946"
   transform="scale(1.0551952,0.94769195)"><tspan
     sodipodi:role="line"
     id="tspan132"
     x="1613.8534"
     y="1582.0245">G17</tspan></text>

<text
   transform="scale(1.0551952,0.94769195)"
   style="font-style:normal;font-variant:normal;font-weight:normal;font-stretch:normal;font-size:54.23472214px;font-family:Arial;-inkscape-font-specification:'Arial, Normal';font-variant-ligatures:normal;font-variant-caps:normal;font-variant-numeric:normal;font-feature-settings:normal;text-align:start;writing-mode:lr-tb;text-anchor:start;fill:#000000;stroke-width:0.49676946"
   id="text136"
   font-size="67.7629"
   font-weight="normal"
   y="1685.8192"
   x="1610.7461"><tspan
     sodipodi:role="line"
     id="tspan138"
     x="1610.7461"
     y="1685.8192">G16</tspan></text>

<text
   transform="scale(1.0551952,0.94769195)"
   style="font-style:normal;font-variant:normal;font-weight:normal;font-stretch:normal;font-size:54.23472214px;font-family:Arial;-inkscape-font-specification:'Arial, Normal';font-variant-ligatures:normal;font-variant-caps:normal;font-variant-numeric:normal;font-feature-settings:normal;text-align:start;writing-mode:lr-tb;text-anchor:start;fill:#000000;stroke-width:0.49676946"
   id="text142"
   font-size="67.7629"
   font-weight="normal"
   y="1786.1541"
   x="1629.39"><tspan
     sodipodi:role="line"
     id="tspan144"
     x="1629.39"
     y="1786.1541">G4</tspan></text>

<text
   transform="scale(1.0551952,0.94769195)"
   style="font-style:normal;font-variant:normal;font-weight:normal;font-stretch:normal;font-size:54.23472214px;font-family:Arial;-inkscape-font-specification:'Arial, Normal';font-variant-ligatures:normal;font-variant-caps:normal;font-variant-numeric:normal;font-feature-settings:normal;text-align:start;writing-mode:lr-tb;text-anchor:start;fill:#000000;stroke-width:0.49676946"
   id="text150"
   font-size="67.7629"
   font-weight="normal"
   y="1993.7432"
   x="1626.2827"><tspan
     sodipodi:role="line"
     id="tspan152"
     x="1626.2827"
     y="1993.7432">G2</tspan></text>

<text
   x="1616.9608"
   y="2094.0781"
   font-weight="normal"
   font-size="67.7629"
   id="text156"
   style="font-style:normal;font-variant:normal;font-weight:normal;font-stretch:normal;font-size:54.23472214px;font-family:Arial;-inkscape-font-specification:'Arial, Normal';font-variant-ligatures:normal;font-variant-caps:normal;font-variant-numeric:normal;font-feature-settings:normal;text-align:start;writing-mode:lr-tb;text-anchor:start;fill:#000000;stroke-width:0.49676946"
   transform="scale(1.0551952,0.94769195)"><tspan
     sodipodi:role="line"
     id="tspan158"
     x="1616.9608"
     y="2094.0781">G15</tspan></text>

<text
   transform="scale(1.0551952,0.94769195)"
   style="font-style:normal;font-variant:normal;font-weight:normal;font-stretch:normal;font-size:54.23472214px;font-family:Arial;-inkscape-font-specification:'Arial, Normal';font-variant-ligatures:normal;font-variant-caps:normal;font-variant-numeric:normal;font-feature-settings:normal;text-align:start;writing-mode:lr-tb;text-anchor:start;fill:#000000;stroke-width:0.49676946"
   id="text162"
   font-size="67.7629"
   font-weight="normal"
   y="2197.8728"
   x="1613.8535"><tspan
     sodipodi:role="line"
     id="tspan164"
     x="1613.8535"
     y="2197.8728">SD1</tspan></text>

<text
   x="1610.7462"
   y="2301.6675"
   font-weight="normal"
   font-size="67.7629"
   id="text168"
   style="font-style:normal;font-variant:normal;font-weight:normal;font-stretch:normal;font-size:54.23472214px;font-family:Arial;-inkscape-font-specification:'Arial, Normal';font-variant-ligatures:normal;font-variant-caps:normal;font-variant-numeric:normal;font-feature-settings:normal;text-align:start;writing-mode:lr-tb;text-anchor:start;fill:#000000;stroke-width:0.49676946"
   transform="scale(1.0551952,0.94769195)"><tspan
     sodipodi:role="line"
     id="tspan170"
     x="1610.7462"
     y="2301.6675">SD0</tspan></text>

<text
   x="900.72021"
   y="753.39758"
   font-weight="normal"
   font-size="67.7629"
   id="text176"
   style="font-style:normal;font-variant:normal;font-weight:normal;font-stretch:normal;font-size:54.23472214px;font-family:Arial;-inkscape-font-specification:'Arial, Normal';font-variant-ligatures:normal;font-variant-caps:normal;font-variant-numeric:normal;font-feature-settings:normal;text-align:start;writing-mode:lr-tb;text-anchor:start;fill:#000000;stroke-width:0.49676946"
   transform="scale(1.0551952,0.94769195)"><tspan
     sodipodi:role="line"
     id="tspan178"
     x="900.72021"
     y="753.39758">SP</tspan></text>

<text
   transform="scale(1.0551952,0.94769195)"
   style="font-style:normal;font-variant:normal;font-weight:normal;font-stretch:normal;font-size:54.23472214px;font-family:Arial;-inkscape-font-specification:'Arial, Normal';font-variant-ligatures:normal;font-variant-caps:normal;font-variant-numeric:normal;font-feature-settings:normal;text-align:start;writing-mode:lr-tb;text-anchor:start;fill:#000000;stroke-width:0.49676946"
   id="text182"
   font-size="67.7629"
   font-weight="normal"
   y="860.65204"
   x="903.82758"><tspan
     sodipodi:role="line"
     id="tspan184"
     x="903.82758"
     y="860.65204">SN</tspan></text>

<text
   x="900.72021"
   y="1061.3217"
   font-weight="normal"
   font-size="67.7629"
   id="text188"
   style="font-style:normal;font-variant:normal;font-weight:normal;font-stretch:normal;font-size:54.23472214px;font-family:Arial;-inkscape-font-specification:'Arial, Normal';font-variant-ligatures:normal;font-variant-caps:normal;font-variant-numeric:normal;font-feature-settings:normal;text-align:start;writing-mode:lr-tb;text-anchor:start;fill:#000000;stroke-width:0.49676946"
   transform="scale(1.0551952,0.94769195)"><tspan
     sodipodi:role="line"
     id="tspan192"
     x="900.72021"
     y="1061.3217">G35</tspan></text>

<text
   transform="scale(1.0551952,0.94769195)"
   style="font-style:normal;font-variant:normal;font-weight:normal;font-stretch:normal;font-size:54.23472214px;font-family:Arial;-inkscape-font-specification:'Arial, Normal';font-variant-ligatures:normal;font-variant-caps:normal;font-variant-numeric:normal;font-feature-settings:normal;text-align:start;writing-mode:lr-tb;text-anchor:start;fill:#000000;stroke-width:0.49676946"
   id="text196"
   font-size="67.7629"
   font-weight="normal"
   y="1165.1163"
   x="897.61285"><tspan
     sodipodi:role="line"
     id="tspan198"
     x="897.61285"
     y="1165.1163">G32</tspan></text>

<text
   x="897.61285"
   y="1272.3707"
   font-weight="normal"
   font-size="67.7629"
   id="text202"
   style="font-style:normal;font-variant:normal;font-weight:normal;font-stretch:normal;font-size:54.23472214px;font-family:Arial;-inkscape-font-specification:'Arial, Normal';font-variant-ligatures:normal;font-variant-caps:normal;font-variant-numeric:normal;font-feature-settings:normal;text-align:start;writing-mode:lr-tb;text-anchor:start;fill:#000000;stroke-width:0.49676946"
   transform="scale(1.0551952,0.94769195)"><tspan
     sodipodi:role="line"
     id="tspan204"
     x="897.61285"
     y="1272.3707">G33</tspan></text>

<text
   transform="scale(1.0551952,0.94769195)"
   style="font-style:normal;font-variant:normal;font-weight:normal;font-stretch:normal;font-size:54.23472214px;font-family:Arial;-inkscape-font-specification:'Arial, Normal';font-variant-ligatures:normal;font-variant-caps:normal;font-variant-numeric:normal;font-feature-settings:normal;text-align:start;writing-mode:lr-tb;text-anchor:start;fill:#000000;stroke-width:0.49676946"
   id="text208"
   font-size="67.7629"
   font-weight="normal"
   y="1365.7859"
   x="900.72021"><tspan
     sodipodi:role="line"
     id="tspan210"
     x="900.72021"
     y="1365.7859">G25</tspan></text>

<text
   x="902.27386"
   y="1580.2947"
   font-weight="normal"
   font-size="67.7629"
   id="text216"
   style="font-style:normal;font-variant:normal;font-weight:normal;font-stretch:normal;font-size:54.23472214px;font-family:Arial;-inkscape-font-specification:'Arial, Normal';font-variant-ligatures:normal;font-variant-caps:normal;font-variant-numeric:normal;font-feature-settings:normal;text-align:start;writing-mode:lr-tb;text-anchor:start;fill:#000000;stroke-width:0.49676946"
   transform="scale(1.0551952,0.94769195)"><tspan
     sodipodi:role="line"
     id="tspan218"
     x="902.27386"
     y="1580.2947">G27</tspan></text>

<text
   transform="scale(1.0551952,0.94769195)"
   style="font-style:normal;font-variant:normal;font-weight:normal;font-stretch:normal;font-size:54.23472214px;font-family:Arial;-inkscape-font-specification:'Arial, Normal';font-variant-ligatures:normal;font-variant-caps:normal;font-variant-numeric:normal;font-feature-settings:normal;text-align:start;writing-mode:lr-tb;text-anchor:start;fill:#000000;stroke-width:0.49676946"
   id="text222"
   font-size="67.7629"
   font-weight="normal"
   y="1680.6295"
   x="899.1665"><tspan
     sodipodi:role="line"
     id="tspan224"
     x="899.1665"
     y="1680.6295">G14</tspan></text>

<text
   x="899.1665"
   y="1784.4241"
   font-weight="normal"
   font-size="67.7629"
   id="text228"
   style="font-style:normal;font-variant:normal;font-weight:normal;font-stretch:normal;font-size:54.23472214px;font-family:Arial;-inkscape-font-specification:'Arial, Normal';font-variant-ligatures:normal;font-variant-caps:normal;font-variant-numeric:normal;font-feature-settings:normal;text-align:start;writing-mode:lr-tb;text-anchor:start;fill:#000000;stroke-width:0.49676946"
   transform="scale(1.0551952,0.94769195)"><tspan
     sodipodi:role="line"
     id="tspan230"
     x="899.1665"
     y="1784.4241">G12</tspan></text>

<text
   transform="scale(1.0551952,0.94769195)"
   style="font-style:normal;font-variant:normal;font-weight:normal;font-stretch:normal;font-size:54.23472214px;font-family:Arial;-inkscape-font-specification:'Arial, Normal';font-variant-ligatures:normal;font-variant-caps:normal;font-variant-numeric:normal;font-feature-settings:normal;text-align:start;writing-mode:lr-tb;text-anchor:start;fill:#000000;stroke-width:0.49676946"
   id="text236"
   font-size="67.7629"
   font-weight="normal"
   y="2094.0781"
   x="902.27386"><tspan
     sodipodi:role="line"
     id="tspan238"
     x="902.27386"
     y="2094.0781">SD2</tspan></text>

<text
   x="899.1665"
   y="2194.4128"
   font-weight="normal"
   font-size="67.7629"
   id="text242"
   style="font-style:normal;font-variant:normal;font-weight:normal;font-stretch:normal;font-size:54.23472214px;font-family:Arial;-inkscape-font-specification:'Arial, Normal';font-variant-ligatures:normal;font-variant-caps:normal;font-variant-numeric:normal;font-feature-settings:normal;text-align:start;writing-mode:lr-tb;text-anchor:start;fill:#000000;stroke-width:0.49676946"
   transform="scale(1.0551952,0.94769195)"><tspan
     sodipodi:role="line"
     id="tspan244"
     x="899.1665"
     y="2194.4128">SD3</tspan></text>

<text
   transform="scale(1.0551952,0.94769195)"
   style="font-style:normal;font-variant:normal;font-weight:normal;font-stretch:normal;font-size:54.23472214px;font-family:Arial;-inkscape-font-specification:'Arial, Normal';font-variant-ligatures:normal;font-variant-caps:normal;font-variant-numeric:normal;font-feature-settings:normal;text-align:start;writing-mode:lr-tb;text-anchor:start;fill:#000000;stroke-width:0.49676946"
   id="text248"
   font-size="67.7629"
   font-weight="normal"
   y="2301.6672"
   x="902.27386"><tspan
     sodipodi:role="line"
     id="tspan252"
     x="902.27386"
     y="2301.6672">!GND (G11)</tspan></text>

</g>
  <line
   x1="286.16348"
   y1="783.90881"
   x2="5.2105484"
   y2="783.90881"
   id="line4-8"
   style="fill:none;stroke:#000000;stroke-width:3.63586926" /><line
   style="fill:none;stroke:#000000;stroke-width:3.63338089"
   id="line772"
   y2="125.86197"
   x2="5.5948944"
   y1="125.86197"
   x1="286.16348" /></g>
  <g
   id="copper1"
   transform="matrix(0.99958434,0,0,1.0959393,138.77133,-92.206509)">
   <g
   id="copper0">
    <circle
   id="connector1pin"
   cx="52"
   cy="930"
   r="27"
   style="fill:none;stroke:#ffbf00;stroke-width:16.13489914" />
    <circle
   id="connector2pin"
   cx="150"
   cy="930"
   r="27"
   style="fill:none;stroke:#ffbf00;stroke-width:16.13489914" />
    <circle
   id="connector3pin"
   cx="247"
   cy="930"
   r="27"
   style="fill:none;stroke:#ffbf00;stroke-width:16.13489914" />
    <circle
   id="connector4pin"
   cx="345"
   cy="930"
   r="27"
   style="fill:none;stroke:#ffbf00;stroke-width:16.13489914" />
    <circle
   id="connector5pin"
   cx="442"
   cy="930"
   r="27"
   style="fill:none;stroke:#ffbf00;stroke-width:16.13489914" />
    <circle
   id="connector6pin"
   cx="540"
   cy="930"
   r="27"
   style="fill:none;stroke:#ffbf00;stroke-width:16.13489914" />
    <circle
   id="connector7pin"
   cx="638"
   cy="930"
   r="27"
   style="fill:none;stroke:#ffbf00;stroke-width:16.13489914" />
    <circle
   id="connector8pin"
   cx="735"
   cy="930"
   r="27"
   style="fill:none;stroke:#ffbf00;stroke-width:16.13489914" />
    <circle
   id="connector9pin"
   cx="833"
   cy="930"
   r="27"
   style="fill:none;stroke:#ffbf00;stroke-width:16.13489914" />
    <circle
   id="connector10pin"
   cx="930"
   cy="930"
   r="27"
   style="fill:none;stroke:#ffbf00;stroke-width:16.13489914" />
    <circle
   id="connector11pin"
   cx="1028"
   cy="930"
   r="27"
   style="fill:none;stroke:#ffbf00;stroke-width:16.13489914" />
    <circle
   id="connector12pin"
   cx="1126"
   cy="930"
   r="27"
   style="fill:none;stroke:#ffbf00;stroke-width:16.13489914" />
    <circle
   id="connector13pin"
   cx="1223"
   cy="930"
   r="27"
   style="fill:none;stroke:#ffbf00;stroke-width:16.13489914" />
    <circle
   id="connector14pin"
   cx="1321"
   cy="930"
   r="27"
   style="fill:none;stroke:#ffbf00;stroke-width:16.13489914" />
    <circle
   id="connector15pin"
   cx="1418"
   cy="930"
   r="27"
   style="fill:none;stroke:#ffbf00;stroke-width:16.13489914" />
    <circle
   id="connector16pin"
   cx="1516"
   cy="930"
   r="27"
   style="fill:none;stroke:#ffbf00;stroke-width:16.13489914" />
    <circle
   id="connector17pin"
   cx="1613"
   cy="930"
   r="27"
   style="fill:none;stroke:#ffbf00;stroke-width:16.13489914" />
    <circle
   id="connector18pin"
   cx="1711"
   cy="930"
   r="27"
   style="fill:none;stroke:#ffbf00;stroke-width:16.13489914" />
    <circle
   id="connector19pin"
   cx="1809"
   cy="930"
   r="27"
   style="fill:none;stroke:#ffbf00;stroke-width:16.13489914" />
    <circle
   id="connector20pin"
   cx="1809"
   cy="52"
   r="27"
   style="fill:none;stroke:#ffbf00;stroke-width:16.13489914" />
    <circle
   id="connector21pin"
   cx="1711"
   cy="52"
   r="27"
   style="fill:none;stroke:#ffbf00;stroke-width:16.13489914" />
    <circle
   id="connector22pin"
   cx="1613"
   cy="52"
   r="27"
   style="fill:none;stroke:#ffbf00;stroke-width:16.13489914" />
    <circle
   id="connector23pin"
   cx="1516"
   cy="52"
   r="27"
   style="fill:none;stroke:#ffbf00;stroke-width:16.13489914" />
    <circle
   id="connector24pin"
   cx="1418"
   cy="52"
   r="27"
   style="fill:none;stroke:#ffbf00;stroke-width:16.13489914" />
    <circle
   id="connector25pin"
   cx="1321"
   cy="52"
   r="27"
   style="fill:none;stroke:#ffbf00;stroke-width:16.13489914" />
    <circle
   id="connector26pin"
   cx="1223"
   cy="52"
   r="27"
   style="fill:none;stroke:#ffbf00;stroke-width:16.13489914" />
    <circle
   id="connector27pin"
   cx="1126"
   cy="52"
   r="27"
   style="fill:none;stroke:#ffbf00;stroke-width:16.13489914" />
    <circle
   id="connector28pin"
   cx="1028"
   cy="52"
   r="27"
   style="fill:none;stroke:#ffbf00;stroke-width:16.13489914" />
    <circle
   id="connector29pin"
   cx="930"
   cy="52"
   r="27"
   style="fill:none;stroke:#ffbf00;stroke-width:16.13489914" />
    <circle
   id="connector30pin"
   cx="833"
   cy="52"
   r="27"
   style="fill:none;stroke:#ffbf00;stroke-width:16.13489914" />
    <circle
   id="connector31pin"
   cx="735"
   cy="52"
   r="27"
   style="fill:none;stroke:#ffbf00;stroke-width:16.13489914" />
    <circle
   id="connector32pin"
   cx="638"
   cy="52"
   r="27"
   style="fill:none;stroke:#ffbf00;stroke-width:16.13489914" />
    <circle
   id="connector33pin"
   cx="540"
   cy="52"
   r="27"
   style="fill:none;stroke:#ffbf00;stroke-width:16.13489914" />
    <circle
   id="connector34pin"
   cx="442"
   cy="52"
   r="27"
   style="fill:none;stroke:#ffbf00;stroke-width:16.13489914" />
    <circle
   id="connector35pin"
   cx="345"
   cy="52"
   r="27"
   style="fill:none;stroke:#ffbf00;stroke-width:16.13489914" />
    <circle
   id="connector36pin"
   cx="247"
   cy="52"
   r="27"
   style="fill:none;stroke:#ffbf00;stroke-width:16.13489914" />
    <circle
   id="connector37pin"
   cx="150"
   cy="52"
   r="27"
   style="fill:none;stroke:#ffbf00;stroke-width:16.13489914" />
    <circle
   id="connector38pin"
   cx="52"
   cy="52"
   r="27"
   style="fill:none;stroke:#ffbf00;stroke-width:16.13489914" />
   </g>
  </g>
 </g>
</svg>